…
``` r
# Read in data and subset data
News <- read_csv("OnlineNewsPopularity.csv", show_col_types = FALSE) 
News <- News %>% 
  filter(!!rlang::sym(params$Channels) == 1) %>%
  select(shares, n_tokens_content, num_imgs, num_videos,
         global_rate_positive_words, global_subjectivity, is_weekend)

# convert the is_weekend variable to a factor
News$is_weekend <- factor(News$is_weekend)
News
```

    ## # A tibble: 6,258 × 7
    ##    shares n_tokens_content num_imgs num_videos global_rate_positive_words global_subjectivity is_weekend
    ##     <dbl>            <dbl>    <dbl>      <dbl>                      <dbl>               <dbl> <fct>     
    ##  1    711              255        1          0                     0.0431               0.341 0         
    ##  2   1500              211        1          0                     0.0569               0.702 0         
    ##  3   3100              397        1          0                     0.0655               0.374 0         
    ##  4    852              244        1          0                     0.0164               0.332 0         
    ##  5    425              723        1          0                     0.0636               0.375 0         
    ##  6   3200              708        1          1                     0.0551               0.491 0         
    ##  7    575              142        1          0                     0.0211               0.443 0         
    ##  8    819              444       23          0                     0.0518               0.462 0         
    ##  9    732              109        1          0                     0.0917               0.593 0         
    ## 10   1200              306        1          0                     0.0490               0.395 0         
    ## # … with 6,248 more rows
…
