…
``` r
# Read in data and subset data
News <- read_csv("OnlineNewsPopularity.csv", show_col_types = FALSE) 
News <- News %>% 
  filter(!!rlang::sym(params$Channels) == 1) %>%
  select(shares, n_tokens_content, num_imgs, num_videos,
         global_rate_positive_words, global_subjectivity, is_weekend)

# convert the is_weekend variable to a factor
News$is_weekend <- factor(News$is_weekend)
News
```

    ## # A tibble: 7,057 × 7
    ##    shares n_tokens_content num_imgs num_videos global_rate_positive_words global_subjectivity is_weekend
    ##     <dbl>            <dbl>    <dbl>      <dbl>                      <dbl>               <dbl> <fct>     
    ##  1    593              219        1          0                     0.0457               0.522 0         
    ##  2   1200              531        1          0                     0.0414               0.430 0         
    ##  3   2100              194        0          1                     0.0567               0.396 0         
    ##  4   1200              161        0          6                     0.0497               0.572 0         
    ##  5   4600              454        1          0                     0.0441               0.467 0         
    ##  6   1200              177        1          0                     0.0678               0.574 0         
    ##  7    631              356       12          1                     0.0618               0.436 0         
    ##  8   1300              281        1          0                     0.0463               0.434 0         
    ##  9   1700              909        1          1                     0.0649               0.470 0         
    ## 10    455              413       13          0                     0.0412               0.447 0         
    ## # … with 7,047 more rows
…
