…
``` r
# Read in data and subset data
News <- read_csv("OnlineNewsPopularity.csv", show_col_types = FALSE) 
News <- News %>% 
  filter(!!rlang::sym(params$Channels) == 1) %>%
  select(shares, n_tokens_content, num_imgs, num_videos,
         global_rate_positive_words, global_subjectivity, is_weekend)

# convert the is_weekend variable to a factor
News$is_weekend <- factor(News$is_weekend)
News
```

    ## # A tibble: 2,323 × 7
    ##    shares n_tokens_content num_imgs num_videos global_rate_posit…
    ##     <dbl>            <dbl>    <dbl>      <dbl>              <dbl>
    ##  1   2600              257        0          1             0.0311
    ##  2    690              218       11          0             0.0550
    ##  3   4800             1226        1          1             0.0228
    ##  4    851             1121        1          0             0.0562
    ##  5   4800              168       11          0             0.0714
    ##  6   9200              100        1          0             0.07  
    ##  7   1600             1596        8          0             0.0533
    ##  8    775              518        1          0             0.0676
    ##  9  18200              358        1          0             0.0391
    ## 10   1600              358        1          0             0.0559
    ## # … with 2,313 more rows, and 2 more variables:
    ## #   global_subjectivity <dbl>, is_weekend <fct>
…
