…
``` r
# Read in data and subset data
News <- read_csv("OnlineNewsPopularity.csv", show_col_types = FALSE) 
News <- News %>% 
  filter(!!rlang::sym(params$Channels) == 1) %>%
  select(shares, n_tokens_content, num_imgs, num_videos,
         global_rate_positive_words, global_subjectivity, is_weekend)

# convert the is_weekend variable to a factor
News$is_weekend <- factor(News$is_weekend)
News
```

    ## # A tibble: 7,346 × 7
    ##    shares n_tokens_content num_imgs num_videos global_rate_posit…
    ##     <dbl>            <dbl>    <dbl>      <dbl>              <dbl>
    ##  1    505             1072       20          0             0.0746
    ##  2    855              370        0          0             0.0297
    ##  3    891              989       20          0             0.0839
    ##  4   3600               97        0          0             0.0309
    ##  5  17100             1207       42          0             0.0696
    ##  6   2800             1248       20          0             0.0681
    ##  7    445             1154       20          0             0.0745
    ##  8    783              266        1          0             0.0113
    ##  9   1500              331        1          0             0.0604
    ## 10   1800             1225       28          0             0.0645
    ## # … with 7,336 more rows, and 2 more variables:
    ## #   global_subjectivity <dbl>, is_weekend <fct>
…
