…
``` r
# Read in data and subset data
News <- read_csv("OnlineNewsPopularity.csv", show_col_types = FALSE) 
News <- News %>% 
  filter(!!rlang::sym(params$Channels) == 1) %>%
  select(shares, n_tokens_content, num_imgs, num_videos,
         global_rate_positive_words, global_subjectivity, is_weekend)

# convert the is_weekend variable to a factor
News$is_weekend <- factor(News$is_weekend)
News
```

    ## # A tibble: 8,427 × 7
    ##    shares n_tokens_content num_imgs num_videos global_rate_posit…
    ##     <dbl>            <dbl>    <dbl>      <dbl>              <dbl>
    ##  1    710              231        1          1             0.0390
    ##  2   2200             1248        1          0             0.0385
    ##  3   1600              682        1          0             0.0499
    ##  4    598              391        1          1             0.0179
    ##  5   1500              125        1          0             0.048 
    ##  6    504              799        1          0             0.0375
    ##  7   1800              317        1          0             0.0379
    ##  8   1200              399        1          0             0.0426
    ##  9    495              443        1          0             0.0384
    ## 10    755              288        0          0             0.0417
    ## # … with 8,417 more rows, and 2 more variables:
    ## #   global_subjectivity <dbl>, is_weekend <fct>
…
